\relax 
\@writefile{toc}{\contentsline {section}{\numberline {1}Literature Survey}{1}\protected@file@percent }
\@writefile{toc}{\contentsline {subsection}{\numberline {1.1}An efficient data security system for group data sharing in cloud system environment(2014)}{1}\protected@file@percent }
\@writefile{toc}{\contentsline {subsection}{\numberline {1.2}Mona: Secure Multi-owner Data Sharing for Dynamic Groups in the Cloud(2012)}{2}\protected@file@percent }
\@writefile{toc}{\contentsline {subsection}{\numberline {1.3}Group Key Management Protocol for File Sharing on Cloud Storage(2020)}{3}\protected@file@percent }
\@writefile{toc}{\contentsline {subsection}{\numberline {1.4}pKAS: A Secure Password-Based Key Agreement Scheme for the Edge Cloud(2021)}{3}\protected@file@percent }
