\relax 
\citation{symencrypt1}
\citation{symencrypt2}
\citation{ecc1}
\citation{ecc2}
\@writefile{toc}{\contentsline {section}{\numberline {0.1}Abstract}{2}\protected@file@percent }
\citation{rpaper1}
\citation{rpaper2}
\citation{rpaper3}
\citation{rpaper4}
\citation{rpaper5}
\@writefile{toc}{\contentsline {chapter}{List of Figures}{ii}\protected@file@percent }
\@writefile{toc}{\contentsline {chapter}{\numberline {1}Introduction}{1}\protected@file@percent }
\@writefile{lof}{\addvspace {10\p@ }}
\@writefile{lot}{\addvspace {10\p@ }}
\@writefile{toc}{\contentsline {section}{\numberline {1.1}Group Data Sharing over Cloud}{1}\protected@file@percent }
\citation{rpaper6}
\@writefile{toc}{\contentsline {section}{\numberline {1.2}Standard Security Techniques}{2}\protected@file@percent }
\@writefile{toc}{\contentsline {section}{\numberline {1.3}Our Apporach - Use of Key Agreement Protocol}{2}\protected@file@percent }
\@writefile{lof}{\contentsline {figure}{\numberline {1.1}{\ignorespaces System model of data sharing in cloud computing}}{4}\protected@file@percent }
\@writefile{toc}{\contentsline {section}{\numberline {1.4}Problem Statement}{4}\protected@file@percent }
\@writefile{toc}{\contentsline {section}{\numberline {1.5}Objectives}{5}\protected@file@percent }
\citation{rpaper1}
\@writefile{toc}{\contentsline {chapter}{\numberline {2}Literature Survey}{6}\protected@file@percent }
\@writefile{lof}{\addvspace {10\p@ }}
\@writefile{lot}{\addvspace {10\p@ }}
\@writefile{toc}{\contentsline {section}{\numberline {2.1}An efficient data security system for group data sharing in cloud system environment \cite  {rpaper1}}{6}\protected@file@percent }
\citation{rpaper2}
\@writefile{toc}{\contentsline {section}{\numberline {2.2}Mona: Secure Multi-owner Data Sharing for Dynamic Groups in the Cloud \cite  {rpaper2}}{7}\protected@file@percent }
\citation{rpaper3}
\citation{rpaper4}
\@writefile{toc}{\contentsline {section}{\numberline {2.3}Group Key Management Protocol for File Sharing on Cloud Storage \cite  {rpaper3}}{9}\protected@file@percent }
\@writefile{toc}{\contentsline {section}{\numberline {2.4}pKAS: A Secure Password-Based Key Agreement Scheme for the Edge Cloud \cite  {rpaper4}}{10}\protected@file@percent }
\citation{rpaper5}
\@writefile{toc}{\contentsline {section}{\numberline {2.5}A Privacy-Preserving and Untraceable Group Data Sharing Scheme in Cloud Computing \cite  {rpaper5} }{11}\protected@file@percent }
\@writefile{toc}{\contentsline {chapter}{\numberline {3}System Requirement Specification}{13}\protected@file@percent }
\@writefile{lof}{\addvspace {10\p@ }}
\@writefile{lot}{\addvspace {10\p@ }}
\@writefile{toc}{\contentsline {section}{\numberline {3.1}Introduction}{13}\protected@file@percent }
\@writefile{toc}{\contentsline {subsection}{\numberline {3.1.1}Purpose}{13}\protected@file@percent }
\@writefile{toc}{\contentsline {subsection}{\numberline {3.1.2}Intended Audience}{13}\protected@file@percent }
\@writefile{toc}{\contentsline {section}{\numberline {3.2}Overall Description}{13}\protected@file@percent }
\@writefile{toc}{\contentsline {subsection}{\numberline {3.2.1}Operations :}{13}\protected@file@percent }
\@writefile{toc}{\contentsline {section}{\numberline {3.3}User characteristics}{14}\protected@file@percent }
\@writefile{toc}{\contentsline {subsection}{\numberline {3.3.1}Limitation}{14}\protected@file@percent }
\@writefile{toc}{\contentsline {subsection}{\numberline {3.3.2}Assumption and Dependencies}{14}\protected@file@percent }
\@writefile{toc}{\contentsline {section}{\numberline {3.4}External Interface Requirements}{14}\protected@file@percent }
\@writefile{toc}{\contentsline {subsection}{\numberline {3.4.1}Software Interface Requirements}{14}\protected@file@percent }
\@writefile{toc}{\contentsline {subsection}{\numberline {3.4.2}Hardware Interface Requirements}{15}\protected@file@percent }
\@writefile{toc}{\contentsline {subsection}{\numberline {3.4.3}Communication Interface Requirements}{15}\protected@file@percent }
\@writefile{toc}{\contentsline {section}{\numberline {3.5}Functional Requirements}{15}\protected@file@percent }
\@writefile{toc}{\contentsline {section}{\numberline {3.6}Non-Functional Requirements}{15}\protected@file@percent }
\@writefile{toc}{\contentsline {subsection}{\numberline {3.6.1}Performance Requirements}{15}\protected@file@percent }
\@writefile{toc}{\contentsline {subsection}{\numberline {3.6.2}Security Requirements}{16}\protected@file@percent }
\@writefile{toc}{\contentsline {chapter}{\numberline {4}System Design}{17}\protected@file@percent }
\@writefile{lof}{\addvspace {10\p@ }}
\@writefile{lot}{\addvspace {10\p@ }}
\@writefile{toc}{\contentsline {section}{\numberline {4.1}Flow Diagram}{17}\protected@file@percent }
\@writefile{lof}{\contentsline {figure}{\numberline {4.1}{\ignorespaces Flow Diagram}}{18}\protected@file@percent }
\@writefile{toc}{\contentsline {chapter}{\numberline {5}Module Architecture}{19}\protected@file@percent }
\@writefile{lof}{\addvspace {10\p@ }}
\@writefile{lot}{\addvspace {10\p@ }}
\@writefile{lof}{\contentsline {figure}{\numberline {5.1}{\ignorespaces Module Architecture}}{20}\protected@file@percent }
\bibstyle{plain}
\bibdata{main}
\@writefile{toc}{\contentsline {chapter}{\numberline {6}Stage Plan}{22}\protected@file@percent }
\@writefile{lof}{\addvspace {10\p@ }}
\@writefile{lot}{\addvspace {10\p@ }}
\@writefile{lof}{\contentsline {figure}{\numberline {6.1}{\ignorespaces Gantt Chart}}{23}\protected@file@percent }
\bibcite{symencrypt2}{1}
\bibcite{symencrypt1}{2}
\bibcite{ecc2}{3}
\bibcite{rpaper2}{4}
\bibcite{rpaper1}{5}
\bibcite{rpaper4}{6}
\bibcite{rpaper5}{7}
\bibcite{rpaper6}{8}
\bibcite{ecc1}{9}
\bibcite{rpaper3}{10}
