\relax 
\@writefile{toc}{\contentsline {section}{\numberline {1}System Requirement Specification}{1}\protected@file@percent }
\@writefile{toc}{\contentsline {subsection}{\numberline {1.1}Introduction}{1}\protected@file@percent }
\@writefile{toc}{\contentsline {subsubsection}{\numberline {1.1.1}Purpose}{1}\protected@file@percent }
\@writefile{toc}{\contentsline {subsubsection}{\numberline {1.1.2}Intended Audience}{1}\protected@file@percent }
\@writefile{toc}{\contentsline {subsection}{\numberline {1.2}Overall Description}{1}\protected@file@percent }
\@writefile{toc}{\contentsline {subsubsection}{\numberline {1.2.1}Operations :}{1}\protected@file@percent }
\@writefile{toc}{\contentsline {subsubsection}{\numberline {1.2.2}User characteristics}{1}\protected@file@percent }
\@writefile{toc}{\contentsline {subsubsection}{\numberline {1.2.3}Limitation}{1}\protected@file@percent }
\@writefile{toc}{\contentsline {subsubsection}{\numberline {1.2.4}Assumption and Dependencies}{1}\protected@file@percent }
\@writefile{toc}{\contentsline {subsection}{\numberline {1.3}External Interface Requirements}{2}\protected@file@percent }
\@writefile{toc}{\contentsline {subsubsection}{\numberline {1.3.1}Software Interface Requirements}{2}\protected@file@percent }
\@writefile{toc}{\contentsline {subsubsection}{\numberline {1.3.2}Hardware Interface Requirements}{2}\protected@file@percent }
\@writefile{toc}{\contentsline {subsubsection}{\numberline {1.3.3}Communication Interface Requirements}{2}\protected@file@percent }
\@writefile{toc}{\contentsline {subsection}{\numberline {1.4}Functional Requirements}{2}\protected@file@percent }
\@writefile{toc}{\contentsline {subsection}{\numberline {1.5}Non-Functional Requirements}{2}\protected@file@percent }
\@writefile{toc}{\contentsline {subsubsection}{\numberline {1.5.1}Performance Requirements}{2}\protected@file@percent }
\@writefile{toc}{\contentsline {subsubsection}{\numberline {1.5.2}Security Requirements}{2}\protected@file@percent }
